CLOUDANNA

===== LICENSE BEGIN =====
97653-12042010
00000tCB8xs6tAiL2q!un77o3ysyUo
07oclixt!rk79h47BtghU6aUJaKmhX
0UmgJhx9kFd6SeNYUBxhscH"VZGrH0
===== LICENSE END =====



LOXGAON

===== LICENSE BEGIN =====
77963-12042010
00001QfxZZ7WW1nyTD!Qm4YnRjGfQg
aVKmY5"KxRNTmhIb4rx571m"occgFl
jPXURlHATrVfr2ZLwIuCMjd6pl3ffS
===== LICENSE END =====


RUBY
===== LICENSE BEGIN =====
20713-12042010
000024MDmsZazJco0tmxOI49LL9JEO
9mKpYypagqkdMPJtEBk38ZBDYzo7ud
!3sNiRrzSXfF"KoRhrmjwfabXCf6TR
===== LICENSE END =====


ROMABN

===== LICENSE BEGIN =====
07537-12042010
00001GEQBXsI"SdWc6kbB9WaE9PDxU
nOl1Xfl35bTA0cXgVHfSvj0j1WA7e0
oB4SPBrnwWhIjnTDKhw74ya3"AwVYM
===== LICENSE END =====


RORAK
===== LICENSE BEGIN =====
08516-12042010
00001!zUz5gsyegViYF1a7yyhGcZRS
mbVZmay6NrY0mtxDWghgsfZsBdUPAN
wgVtJfCfWRHAYy5!qVAqqjxf1pbhxs
===== LICENSE END =====
